{
  "$id": "https://gitlab.com/crius-bots/criuscommander/v2/schema.json",
  "$schema": "http://json-schema.org/schema#",
  "type": "object",
  "additionalProperties": false,
  "properties": {
    "name": {
      "type": "string"
    },
    "creator": {
      "type": "string"
    },
    "license": {
      "type": "string"
    },
    "url": {
      "type": "string"
    },
    "description": {
      "type": "string"
    },
    "plugin_type": {
      "type": "string"
    },
    "supported_platforms": {
      "type": "number"
    },
    "hide_in_help": {
      "type": "boolean"
    },
    "commands": {
      "type": "array",
      "items": {
        "type": "object",
        "properties": {
          "name": {
            "type": "string"
          },
          "activator": {
            "type": "string"
          },
          "help": {
            "type": "string"
          },
          "handler_name": {
            "type": "string"
          },
          "supported_platforms": {
            "type": "number"
          }
        },
        "required": ["name", "activator", "help", "handler_name", "supported_platforms"],
        "additionalProperties": false
      }
    }
  },
  "required": ["name", "creator", "license", "url", "description", "plugin_type", "supported_platforms", "commands"]
}
